…
In this example, you should obtained a data frame with the dimension
324x2. The two variables are the **OTUID** and the taxonomic level
**phylum**.

## Pivot the data and add taxonomy information

``` r
counts %>% 
  pivot_longer(-OTUID,
               names_to = "sample",
               values_to = "counts") %>%
  inner_join(taxonomy, by="OTUID") 
```

    # A tibble: 5,814 × 4
       OTUID                            sample counts phylum    
       <chr>                            <chr>   <int> <chr>     
     1 b7baa37944fb48185b3ccd35739564a1 C15A     7068 Firmicutes
     2 b7baa37944fb48185b3ccd35739564a1 C15B     6498 Firmicutes
     3 b7baa37944fb48185b3ccd35739564a1 C15C     7198 Firmicutes
     4 b7baa37944fb48185b3ccd35739564a1 C2A      8357 Firmicutes
     5 b7baa37944fb48185b3ccd35739564a1 C2B      7573 Firmicutes
     6 b7baa37944fb48185b3ccd35739564a1 C2C      7124 Firmicutes
     7 b7baa37944fb48185b3ccd35739564a1 C40A     4524 Firmicutes
     8 b7baa37944fb48185b3ccd35739564a1 C40B     6459 Firmicutes
     9 b7baa37944fb48185b3ccd35739564a1 C40C     4730 Firmicutes
    10 b7baa37944fb48185b3ccd35739564a1 C4A      6459 Firmicutes
    # … with 5,804 more rows
…
